
OMP_NUM_THREADS=1 R=512 S=64
OpenMP: repeat = 100
size = 1 x 1
points = 2048 x 2048
it = 10
avg_time_per_iteration = 0.0311424 sec
std_time_per_iteration = 0.000433685 sec
--------------------------

OMP_NUM_THREADS=2 R=512 S=64
OpenMP: repeat = 100
size = 1 x 1
points = 2048 x 2048
it = 10
avg_time_per_iteration = 0.0238908 sec
std_time_per_iteration = 0.000234468 sec
--------------------------

OMP_NUM_THREADS=4 R=512 S=64
OpenMP: repeat = 100
size = 1 x 1
points = 2048 x 2048
it = 10
avg_time_per_iteration = 0.0164885 sec
std_time_per_iteration = 0.000264544 sec
--------------------------

OMP_NUM_THREADS=8 R=512 S=64
OpenMP: repeat = 100
size = 1 x 1
points = 2048 x 2048
it = 10
avg_time_per_iteration = 0.0119167 sec
std_time_per_iteration = 0.000192653 sec
--------------------------

OMP_NUM_THREADS=16 R=512 S=64
OpenMP: repeat = 100
size = 1 x 1
points = 2048 x 2048
it = 10
avg_time_per_iteration = 0.00743479 sec
std_time_per_iteration = 0.000183268 sec
--------------------------

OMP_NUM_THREADS=32 R=512 S=64
OpenMP: repeat = 100
size = 1 x 1
points = 2048 x 2048
it = 10
avg_time_per_iteration = 0.00460658 sec
std_time_per_iteration = 0.000138156 sec
--------------------------

OMP_NUM_THREADS=64 R=512 S=64
OpenMP: repeat = 100
size = 1 x 1
points = 2048 x 2048
it = 10
avg_time_per_iteration = 0.00418159 sec
std_time_per_iteration = 0.000378622 sec
--------------------------

