
OMP_NUM_THREADS=1 R=16 S=64
OpenMP: repeat = 100
size = 1 x 1
points = 2048 x 2048
it = 10
avg_time_per_iteration = 0.0275157 sec
std_time_per_iteration = 0.000178874 sec
--------------------------

OMP_NUM_THREADS=2 R=16 S=64
OpenMP: repeat = 100
size = 1 x 1
points = 2048 x 2048
it = 10
avg_time_per_iteration = 0.0200299 sec
std_time_per_iteration = 0.00031014 sec
--------------------------

OMP_NUM_THREADS=4 R=16 S=64
OpenMP: repeat = 100
size = 1 x 1
points = 2048 x 2048
it = 10
avg_time_per_iteration = 0.0123046 sec
std_time_per_iteration = 0.000532217 sec
--------------------------

OMP_NUM_THREADS=8 R=16 S=64
OpenMP: repeat = 100
size = 1 x 1
points = 2048 x 2048
it = 10
avg_time_per_iteration = 0.00866547 sec
std_time_per_iteration = 0.00014238 sec
--------------------------

OMP_NUM_THREADS=16 R=16 S=64
OpenMP: repeat = 100
size = 1 x 1
points = 2048 x 2048
it = 10
avg_time_per_iteration = 0.0061852 sec
std_time_per_iteration = 0.000184424 sec
--------------------------

OMP_NUM_THREADS=32 R=16 S=64
OpenMP: repeat = 100
size = 1 x 1
points = 2048 x 2048
it = 10
avg_time_per_iteration = 0.00429563 sec
std_time_per_iteration = 0.000179434 sec
--------------------------

OMP_NUM_THREADS=64 R=16 S=64
OpenMP: repeat = 100
size = 1 x 1
points = 2048 x 2048
it = 10
avg_time_per_iteration = 0.00408267 sec
std_time_per_iteration = 0.000297219 sec
--------------------------

