
nodes=1 ntasks=1
OpenMPI: repeat = 100
size = 1 x 1
points = 512 x 512
it = 10
avg_time_per_iteration = 0.00449909 sec
std_time_per_iteration = 4.92662e-05 sec
--------------------------

nodes=1 ntasks=2
OpenMPI: repeat = 100
size = 1 x 1
points = 512 x 512
it = 10
avg_time_per_iteration = 0.00291467 sec
std_time_per_iteration = 4.9247e-05 sec
--------------------------

nodes=1 ntasks=4
OpenMPI: repeat = 100
size = 1 x 1
points = 512 x 512
it = 10
avg_time_per_iteration = 0.00160519 sec
std_time_per_iteration = 4.95678e-05 sec
--------------------------

nodes=1 ntasks=8
OpenMPI: repeat = 100
size = 1 x 1
points = 512 x 512
it = 10
avg_time_per_iteration = 0.000985761 sec
std_time_per_iteration = 4.93274e-05 sec
--------------------------

nodes=1 ntasks=16
OpenMPI: repeat = 100
size = 1 x 1
points = 512 x 512
it = 10
avg_time_per_iteration = 0.000643799 sec
std_time_per_iteration = 3.3761e-05 sec
--------------------------

nodes=1 ntasks=32
OpenMPI: repeat = 100
size = 1 x 1
points = 512 x 512
it = 10
avg_time_per_iteration = 0.00049744 sec
std_time_per_iteration = 1.95943e-05 sec
--------------------------

nodes=2 ntasks=32
OpenMPI: repeat = 100
size = 1 x 1
points = 512 x 512
it = 10
avg_time_per_iteration = 0.000625586 sec
std_time_per_iteration = 0.00173643 sec
--------------------------

