
nodes=1 ntasks=1
OpenMPI: repeat = 100
size = 1 x 1
points = 4096 x 4096
it = 10
avg_time_per_iteration = 0.325952 sec
std_time_per_iteration = 0.00307028 sec
--------------------------

nodes=1 ntasks=2
OpenMPI: repeat = 100
size = 1 x 1
points = 4096 x 4096
it = 10
avg_time_per_iteration = 0.202465 sec
std_time_per_iteration = 0.00156657 sec
--------------------------

nodes=1 ntasks=4
OpenMPI: repeat = 100
size = 1 x 1
points = 4096 x 4096
it = 10
avg_time_per_iteration = 0.156892 sec
std_time_per_iteration = 0.00120169 sec
--------------------------

nodes=1 ntasks=8
OpenMPI: repeat = 100
size = 1 x 1
points = 4096 x 4096
it = 10
avg_time_per_iteration = 0.0699544 sec
std_time_per_iteration = 0.000731603 sec
--------------------------

nodes=1 ntasks=16
OpenMPI: repeat = 100
size = 1 x 1
points = 4096 x 4096
it = 10
avg_time_per_iteration = 0.0416481 sec
std_time_per_iteration = 0.000514643 sec
--------------------------

nodes=1 ntasks=32
OpenMPI: repeat = 100
size = 1 x 1
points = 4096 x 4096
it = 10
avg_time_per_iteration = 0.0283318 sec
std_time_per_iteration = 0.000653065 sec
--------------------------

nodes=1 ntasks=64
OpenMPI: repeat = 100
size = 1 x 1
points = 4096 x 4096
it = 10
avg_time_per_iteration = 0.0224219 sec
std_time_per_iteration = 0.00131568 sec
--------------------------

nodes=2 ntasks=32
OpenMPI: repeat = 100
size = 1 x 1
points = 4096 x 4096
it = 10
avg_time_per_iteration = 0.0292487 sec
std_time_per_iteration = 0.00303548 sec
--------------------------

nodes=2 ntasks=64
OpenMPI: repeat = 100
size = 1 x 1
points = 4096 x 4096
it = 10
avg_time_per_iteration = 0.0234925 sec
std_time_per_iteration = 0.00484372 sec
--------------------------

