
nodes=1 ntasks=1
OpenMPI: repeat = 100
size = 1 x 1
points = 2048 x 2048
it = 10
avg_time_per_iteration = 0.0773662 sec
std_time_per_iteration = 0.000562871 sec
--------------------------

nodes=1 ntasks=2
OpenMPI: repeat = 100
size = 1 x 1
points = 2048 x 2048
it = 10
avg_time_per_iteration = 0.0481206 sec
std_time_per_iteration = 0.000456323 sec
--------------------------

nodes=1 ntasks=4
OpenMPI: repeat = 100
size = 1 x 1
points = 2048 x 2048
it = 10
avg_time_per_iteration = 0.0312798 sec
std_time_per_iteration = 0.00103541 sec
--------------------------

nodes=1 ntasks=8
OpenMPI: repeat = 100
size = 1 x 1
points = 2048 x 2048
it = 10
avg_time_per_iteration = 0.0168897 sec
std_time_per_iteration = 0.000326978 sec
--------------------------

nodes=1 ntasks=16
OpenMPI: repeat = 100
size = 1 x 1
points = 2048 x 2048
it = 10
avg_time_per_iteration = 0.0095089 sec
std_time_per_iteration = 0.000248136 sec
--------------------------

nodes=1 ntasks=32
OpenMPI: repeat = 100
size = 1 x 1
points = 2048 x 2048
it = 10
avg_time_per_iteration = 0.00670292 sec
std_time_per_iteration = 0.000229135 sec
--------------------------

nodes=1 ntasks=64
OpenMPI: repeat = 100
size = 1 x 1
points = 2048 x 2048
it = 10
avg_time_per_iteration = 0.00532707 sec
std_time_per_iteration = 0.000438162 sec
--------------------------

nodes=2 ntasks=32
OpenMPI: repeat = 100
size = 1 x 1
points = 2048 x 2048
it = 10
avg_time_per_iteration = 0.00722318 sec
std_time_per_iteration = 0.00171277 sec
--------------------------

nodes=2 ntasks=64
OpenMPI: repeat = 100
size = 1 x 1
points = 2048 x 2048
it = 10
avg_time_per_iteration = 0.00631708 sec
std_time_per_iteration = 0.00327408 sec
--------------------------

