
nodes=1 ntasks=1
OpenMPI: repeat = 100
size = 1 x 1
points = 2048 x 2048
it = 10
avg_time_per_iteration = 0.0790115 sec
std_time_per_iteration = 0.000721455 sec
--------------------------

nodes=1 ntasks=2
OpenMPI: repeat = 100
size = 1 x 1
points = 2048 x 2048
it = 10
avg_time_per_iteration = 0.0694626 sec
std_time_per_iteration = 0.000397423 sec
--------------------------

nodes=1 ntasks=4
OpenMPI: repeat = 100
size = 1 x 1
points = 2048 x 2048
it = 10
avg_time_per_iteration = 0.0261761 sec
std_time_per_iteration = 0.000463545 sec
--------------------------

nodes=1 ntasks=8
OpenMPI: repeat = 100
size = 1 x 1
points = 2048 x 2048
it = 10
avg_time_per_iteration = 0.0166595 sec
std_time_per_iteration = 0.00025846 sec
--------------------------

nodes=1 ntasks=16
OpenMPI: repeat = 100
size = 1 x 1
points = 2048 x 2048
it = 10
avg_time_per_iteration = 0.00968982 sec
std_time_per_iteration = 0.000208616 sec
--------------------------

nodes=1 ntasks=32
OpenMPI: repeat = 100
size = 1 x 1
points = 2048 x 2048
it = 10
avg_time_per_iteration = 0.00705503 sec
std_time_per_iteration = 0.000292694 sec
--------------------------

nodes=1 ntasks=64
OpenMPI: repeat = 100
size = 1 x 1
points = 2048 x 2048
it = 10
avg_time_per_iteration = 0.00542908 sec
std_time_per_iteration = 0.000735359 sec
--------------------------

nodes=2 ntasks=32
OpenMPI: repeat = 100
size = 1 x 1
points = 2048 x 2048
it = 10
avg_time_per_iteration = 0.00741028 sec
std_time_per_iteration = 0.00169922 sec
--------------------------

nodes=2 ntasks=64
OpenMPI: repeat = 100
size = 1 x 1
points = 2048 x 2048
it = 10
avg_time_per_iteration = 0.00640866 sec
std_time_per_iteration = 0.00327113 sec
--------------------------

