
nodes=1 ntasks=1
OpenMPI: repeat = 100
size = 1 x 1
points = 2048 x 2048
it = 10
avg_time_per_iteration = 0.112918 sec
std_time_per_iteration = 0.00082247 sec
--------------------------

nodes=1 ntasks=2
OpenMPI: repeat = 100
size = 1 x 1
points = 2048 x 2048
it = 10
avg_time_per_iteration = 0.0493928 sec
std_time_per_iteration = 0.00051952 sec
--------------------------

nodes=1 ntasks=4
OpenMPI: repeat = 100
size = 1 x 1
points = 2048 x 2048
it = 10
avg_time_per_iteration = 0.0259504 sec
std_time_per_iteration = 0.000378471 sec
--------------------------

nodes=1 ntasks=8
OpenMPI: repeat = 100
size = 1 x 1
points = 2048 x 2048
it = 10
avg_time_per_iteration = 0.0164512 sec
std_time_per_iteration = 0.000231136 sec
--------------------------

nodes=1 ntasks=16
OpenMPI: repeat = 100
size = 1 x 1
points = 2048 x 2048
it = 10
avg_time_per_iteration = 0.00985267 sec
std_time_per_iteration = 0.000193552 sec
--------------------------

nodes=1 ntasks=32
OpenMPI: repeat = 100
size = 1 x 1
points = 2048 x 2048
it = 10
avg_time_per_iteration = 0.00690895 sec
std_time_per_iteration = 0.000305821 sec
--------------------------

nodes=1 ntasks=64
OpenMPI: repeat = 100
size = 1 x 1
points = 2048 x 2048
it = 10
avg_time_per_iteration = 0.00560572 sec
std_time_per_iteration = 0.000720726 sec
--------------------------

nodes=2 ntasks=32
OpenMPI: repeat = 100
size = 1 x 1
points = 2048 x 2048
it = 10
avg_time_per_iteration = 0.00748937 sec
std_time_per_iteration = 0.00169092 sec
--------------------------

nodes=2 ntasks=64
OpenMPI: repeat = 100
size = 1 x 1
points = 2048 x 2048
it = 10
avg_time_per_iteration = 0.00655797 sec
std_time_per_iteration = 0.0032703 sec
--------------------------

