
nodes=1 ntasks=1
OpenMPI: repeat = 100
size = 1 x 1
points = 1024 x 1024
it = 10
avg_time_per_iteration = 0.018948 sec
std_time_per_iteration = 0.000163123 sec
--------------------------

nodes=1 ntasks=2
OpenMPI: repeat = 100
size = 1 x 1
points = 1024 x 1024
it = 10
avg_time_per_iteration = 0.015364 sec
std_time_per_iteration = 0.000194427 sec
--------------------------

nodes=1 ntasks=4
OpenMPI: repeat = 100
size = 1 x 1
points = 1024 x 1024
it = 10
avg_time_per_iteration = 0.00649005 sec
std_time_per_iteration = 0.00017076 sec
--------------------------

nodes=1 ntasks=8
OpenMPI: repeat = 100
size = 1 x 1
points = 1024 x 1024
it = 10
avg_time_per_iteration = 0.00355165 sec
std_time_per_iteration = 0.000165679 sec
--------------------------

nodes=1 ntasks=16
OpenMPI: repeat = 100
size = 1 x 1
points = 1024 x 1024
it = 10
avg_time_per_iteration = 0.00230992 sec
std_time_per_iteration = 9.8322e-05 sec
--------------------------

nodes=1 ntasks=32
OpenMPI: repeat = 100
size = 1 x 1
points = 1024 x 1024
it = 10
avg_time_per_iteration = 0.00162437 sec
std_time_per_iteration = 7.29456e-05 sec
--------------------------

nodes=1 ntasks=64
OpenMPI: repeat = 100
size = 1 x 1
points = 1024 x 1024
it = 10
avg_time_per_iteration = 0.00130015 sec
std_time_per_iteration = 4.50107e-05 sec
--------------------------

nodes=2 ntasks=32
OpenMPI: repeat = 100
size = 1 x 1
points = 1024 x 1024
it = 10
avg_time_per_iteration = 0.0016087 sec
std_time_per_iteration = 0.00315394 sec
--------------------------

nodes=2 ntasks=64
OpenMPI: repeat = 100
size = 1 x 1
points = 1024 x 1024
it = 10
avg_time_per_iteration = 0.001618 sec
std_time_per_iteration = 0.00634199 sec
--------------------------

