
OMP_NUM_THREADS=1 R=512
OpenMP: repeat = 100
size = 1 x 1
points = 2048 x 2048
it = 10
avg_time_per_iteration = 0.0244357 sec
std_time_per_iteration = 0.000214148 sec
--------------------------

OMP_NUM_THREADS=2 R=512
OpenMP: repeat = 100
size = 1 x 1
points = 2048 x 2048
it = 10
avg_time_per_iteration = 0.0204298 sec
std_time_per_iteration = 0.000293569 sec
--------------------------

OMP_NUM_THREADS=4 R=512
OpenMP: repeat = 100
size = 1 x 1
points = 2048 x 2048
it = 10
avg_time_per_iteration = 0.0123646 sec
std_time_per_iteration = 0.0002478 sec
--------------------------

OMP_NUM_THREADS=8 R=512
OpenMP: repeat = 100
size = 1 x 1
points = 2048 x 2048
it = 10
avg_time_per_iteration = 0.00928335 sec
std_time_per_iteration = 0.000202063 sec
--------------------------

OMP_NUM_THREADS=16 R=512
OpenMP: repeat = 100
size = 1 x 1
points = 2048 x 2048
it = 10
avg_time_per_iteration = 0.006632 sec
std_time_per_iteration = 0.000172703 sec
--------------------------

OMP_NUM_THREADS=32 R=512
OpenMP: repeat = 100
size = 1 x 1
points = 2048 x 2048
it = 10
avg_time_per_iteration = 0.00444364 sec
std_time_per_iteration = 6.41239e-05 sec
--------------------------

OMP_NUM_THREADS=64 R=512
OpenMP: repeat = 100
size = 1 x 1
points = 2048 x 2048
it = 10
avg_time_per_iteration = 0.00410021 sec
std_time_per_iteration = 0.000268372 sec
--------------------------

