
OMP_NUM_THREADS=1 R=512
OpenMP: repeat = 100
size = 1 x 1
points = 256 x 256
it = 10
avg_time_per_iteration = 0.00024666 sec
std_time_per_iteration = 1.66789e-05 sec
--------------------------

OMP_NUM_THREADS=2 R=512
OpenMP: repeat = 100
size = 1 x 1
points = 256 x 256
it = 10
avg_time_per_iteration = 0.000245275 sec
std_time_per_iteration = 1.63059e-05 sec
--------------------------

OMP_NUM_THREADS=4 R=512
OpenMP: repeat = 100
size = 1 x 1
points = 256 x 256
it = 10
avg_time_per_iteration = 0.000135799 sec
std_time_per_iteration = 2.78653e-05 sec
--------------------------

OMP_NUM_THREADS=8 R=512
OpenMP: repeat = 100
size = 1 x 1
points = 256 x 256
it = 10
avg_time_per_iteration = 8.30782e-05 sec
std_time_per_iteration = 4.1302e-05 sec
--------------------------

OMP_NUM_THREADS=16 R=512
OpenMP: repeat = 100
size = 1 x 1
points = 256 x 256
it = 10
avg_time_per_iteration = 5.66215e-05 sec
std_time_per_iteration = 4.40422e-05 sec
--------------------------

OMP_NUM_THREADS=32 R=512
OpenMP: repeat = 100
size = 1 x 1
points = 256 x 256
it = 10
avg_time_per_iteration = 5.47071e-05 sec
std_time_per_iteration = 5.64862e-05 sec
--------------------------

OMP_NUM_THREADS=64 R=512
OpenMP: repeat = 100
size = 1 x 1
points = 256 x 256
it = 10
avg_time_per_iteration = 8.88252e-05 sec
std_time_per_iteration = 7.78331e-05 sec
--------------------------

