
OMP_NUM_THREADS=1 R=512
OpenMP: repeat = 100
size = 1 x 1
points = 1024 x 1024
it = 10
avg_time_per_iteration = 0.00670769 sec
std_time_per_iteration = 0.000106362 sec
--------------------------

OMP_NUM_THREADS=2 R=512
OpenMP: repeat = 100
size = 1 x 1
points = 1024 x 1024
it = 10
avg_time_per_iteration = 0.00505088 sec
std_time_per_iteration = 7.36215e-05 sec
--------------------------

OMP_NUM_THREADS=4 R=512
OpenMP: repeat = 100
size = 1 x 1
points = 1024 x 1024
it = 10
avg_time_per_iteration = 0.00311192 sec
std_time_per_iteration = 4.87158e-05 sec
--------------------------

OMP_NUM_THREADS=8 R=512
OpenMP: repeat = 100
size = 1 x 1
points = 1024 x 1024
it = 10
avg_time_per_iteration = 0.00194524 sec
std_time_per_iteration = 4.22718e-05 sec
--------------------------

OMP_NUM_THREADS=16 R=512
OpenMP: repeat = 100
size = 1 x 1
points = 1024 x 1024
it = 10
avg_time_per_iteration = 0.00132358 sec
std_time_per_iteration = 9.56722e-05 sec
--------------------------

OMP_NUM_THREADS=32 R=512
OpenMP: repeat = 100
size = 1 x 1
points = 1024 x 1024
it = 10
avg_time_per_iteration = 0.00131373 sec
std_time_per_iteration = 0.000117127 sec
--------------------------

OMP_NUM_THREADS=64 R=512
OpenMP: repeat = 100
size = 1 x 1
points = 1024 x 1024
it = 10
avg_time_per_iteration = 0.00187181 sec
std_time_per_iteration = 0.00020447 sec
--------------------------

