
OMP_NUM_THREADS=1 R=2
OpenMP: repeat = 100
size = 1 x 1
points = 256 x 256
it = 10
avg_time_per_iteration = 0.000633449 sec
std_time_per_iteration = 6.95814e-05 sec
--------------------------

OMP_NUM_THREADS=2 R=2
OpenMP: repeat = 100
size = 1 x 1
points = 256 x 256
it = 10
avg_time_per_iteration = 0.000437806 sec
std_time_per_iteration = 4.78168e-05 sec
--------------------------

OMP_NUM_THREADS=4 R=2
OpenMP: repeat = 100
size = 1 x 1
points = 256 x 256
it = 10
avg_time_per_iteration = 0.000246594 sec
std_time_per_iteration = 5.36235e-05 sec
--------------------------

OMP_NUM_THREADS=8 R=2
OpenMP: repeat = 100
size = 1 x 1
points = 256 x 256
it = 10
avg_time_per_iteration = 0.000148288 sec
std_time_per_iteration = 4.42314e-05 sec
--------------------------

OMP_NUM_THREADS=16 R=2
OpenMP: repeat = 100
size = 1 x 1
points = 256 x 256
it = 10
avg_time_per_iteration = 8.76987e-05 sec
std_time_per_iteration = 5.34197e-05 sec
--------------------------

OMP_NUM_THREADS=32 R=2
OpenMP: repeat = 100
size = 1 x 1
points = 256 x 256
it = 10
avg_time_per_iteration = 7.16529e-05 sec
std_time_per_iteration = 5.90773e-05 sec
--------------------------

OMP_NUM_THREADS=64 R=2
OpenMP: repeat = 100
size = 1 x 1
points = 256 x 256
it = 10
avg_time_per_iteration = 8.26622e-05 sec
std_time_per_iteration = 6.45841e-05 sec
--------------------------

