
OMP_NUM_THREADS=1 R=32
OpenMP: repeat = 100
size = 1 x 1
points = 256 x 256
it = 10
avg_time_per_iteration = 0.000363845 sec
std_time_per_iteration = 2.40017e-05 sec
--------------------------

OMP_NUM_THREADS=2 R=32
OpenMP: repeat = 100
size = 1 x 1
points = 256 x 256
it = 10
avg_time_per_iteration = 0.000269533 sec
std_time_per_iteration = 1.26039e-05 sec
--------------------------

OMP_NUM_THREADS=4 R=32
OpenMP: repeat = 100
size = 1 x 1
points = 256 x 256
it = 10
avg_time_per_iteration = 0.000147192 sec
std_time_per_iteration = 2.90491e-05 sec
--------------------------

OMP_NUM_THREADS=8 R=32
OpenMP: repeat = 100
size = 1 x 1
points = 256 x 256
it = 10
avg_time_per_iteration = 8.57304e-05 sec
std_time_per_iteration = 2.46089e-05 sec
--------------------------

OMP_NUM_THREADS=16 R=32
OpenMP: repeat = 100
size = 1 x 1
points = 256 x 256
it = 10
avg_time_per_iteration = 5.89565e-05 sec
std_time_per_iteration = 4.54418e-05 sec
--------------------------

OMP_NUM_THREADS=32 R=32
OpenMP: repeat = 100
size = 1 x 1
points = 256 x 256
it = 10
avg_time_per_iteration = 5.5872e-05 sec
std_time_per_iteration = 5.3963e-05 sec
--------------------------

OMP_NUM_THREADS=64 R=32
OpenMP: repeat = 100
size = 1 x 1
points = 256 x 256
it = 10
avg_time_per_iteration = 8.94645e-05 sec
std_time_per_iteration = 8.42379e-05 sec
--------------------------

