
OMP_NUM_THREADS=1 R=16
OpenMP: repeat = 100
size = 1 x 1
points = 4096 x 4096
it = 10
avg_time_per_iteration = 0.302643 sec
std_time_per_iteration = 0.00287261 sec
--------------------------

OMP_NUM_THREADS=2 R=16
OpenMP: repeat = 100
size = 1 x 1
points = 4096 x 4096
it = 10
avg_time_per_iteration = 0.183786 sec
std_time_per_iteration = 0.00170573 sec
--------------------------

OMP_NUM_THREADS=4 R=16
OpenMP: repeat = 100
size = 1 x 1
points = 4096 x 4096
it = 10
avg_time_per_iteration = 0.102371 sec
std_time_per_iteration = 0.0014783 sec
--------------------------

OMP_NUM_THREADS=8 R=16
OpenMP: repeat = 100
size = 1 x 1
points = 4096 x 4096
it = 10
avg_time_per_iteration = 0.0636855 sec
std_time_per_iteration = 0.00076757 sec
--------------------------

OMP_NUM_THREADS=16 R=16
OpenMP: repeat = 100
size = 1 x 1
points = 4096 x 4096
it = 10
avg_time_per_iteration = 0.0323401 sec
std_time_per_iteration = 0.000456368 sec
--------------------------

OMP_NUM_THREADS=32 R=16
OpenMP: repeat = 100
size = 1 x 1
points = 4096 x 4096
it = 10
avg_time_per_iteration = 0.0226291 sec
std_time_per_iteration = 0.000568642 sec
--------------------------

OMP_NUM_THREADS=64 R=16
OpenMP: repeat = 100
size = 1 x 1
points = 4096 x 4096
it = 10
avg_time_per_iteration = 0.0198243 sec
std_time_per_iteration = 0.00051812 sec
--------------------------

