
OMP_NUM_THREADS=1 R=2
OpenMP: repeat = 100
size = 1 x 1
points = 2048 x 2048
it = 10
avg_time_per_iteration = 0.269416 sec
std_time_per_iteration = 0.00232835 sec
--------------------------

OMP_NUM_THREADS=2 R=2
OpenMP: repeat = 100
size = 1 x 1
points = 2048 x 2048
it = 10
avg_time_per_iteration = 0.137003 sec
std_time_per_iteration = 0.00184517 sec
--------------------------

OMP_NUM_THREADS=4 R=2
OpenMP: repeat = 100
size = 1 x 1
points = 2048 x 2048
it = 10
avg_time_per_iteration = 0.0636208 sec
std_time_per_iteration = 0.000804271 sec
--------------------------

OMP_NUM_THREADS=8 R=2
OpenMP: repeat = 100
size = 1 x 1
points = 2048 x 2048
it = 10
avg_time_per_iteration = 0.0340855 sec
std_time_per_iteration = 0.00020538 sec
--------------------------

OMP_NUM_THREADS=16 R=2
OpenMP: repeat = 100
size = 1 x 1
points = 2048 x 2048
it = 10
avg_time_per_iteration = 0.0171684 sec
std_time_per_iteration = 0.0003035 sec
--------------------------

OMP_NUM_THREADS=32 R=2
OpenMP: repeat = 100
size = 1 x 1
points = 2048 x 2048
it = 10
avg_time_per_iteration = 0.00984128 sec
std_time_per_iteration = 0.00028072 sec
--------------------------

OMP_NUM_THREADS=64 R=2
OpenMP: repeat = 100
size = 1 x 1
points = 2048 x 2048
it = 10
avg_time_per_iteration = 0.00717669 sec
std_time_per_iteration = 0.000591226 sec
--------------------------

