
OMP_NUM_THREADS=1 R=2
OpenMP: repeat = 100
size = 1 x 1
points = 1024 x 1024
it = 10
avg_time_per_iteration = 0.0375551 sec
std_time_per_iteration = 0.00188112 sec
--------------------------

OMP_NUM_THREADS=2 R=2
OpenMP: repeat = 100
size = 1 x 1
points = 1024 x 1024
it = 10
avg_time_per_iteration = 0.0202707 sec
std_time_per_iteration = 0.000956895 sec
--------------------------

OMP_NUM_THREADS=4 R=2
OpenMP: repeat = 100
size = 1 x 1
points = 1024 x 1024
it = 10
avg_time_per_iteration = 0.00985918 sec
std_time_per_iteration = 0.00056069 sec
--------------------------

OMP_NUM_THREADS=8 R=2
OpenMP: repeat = 100
size = 1 x 1
points = 1024 x 1024
it = 10
avg_time_per_iteration = 0.00574682 sec
std_time_per_iteration = 0.000259787 sec
--------------------------

OMP_NUM_THREADS=16 R=2
OpenMP: repeat = 100
size = 1 x 1
points = 1024 x 1024
it = 10
avg_time_per_iteration = 0.0032806 sec
std_time_per_iteration = 0.000207266 sec
--------------------------

OMP_NUM_THREADS=32 R=2
OpenMP: repeat = 100
size = 1 x 1
points = 1024 x 1024
it = 10
avg_time_per_iteration = 0.00242157 sec
std_time_per_iteration = 0.00016778 sec
--------------------------

OMP_NUM_THREADS=64 R=2
OpenMP: repeat = 100
size = 1 x 1
points = 1024 x 1024
it = 10
avg_time_per_iteration = 0.00253936 sec
std_time_per_iteration = 0.000379242 sec
--------------------------

