
OMP_NUM_THREADS=1 R=2
OpenMP: repeat = 100
size = 1 x 1
points = 512 x 512
it = 10
avg_time_per_iteration = 0.00716479 sec
std_time_per_iteration = 0.000502905 sec
--------------------------

OMP_NUM_THREADS=2 R=2
OpenMP: repeat = 100
size = 1 x 1
points = 512 x 512
it = 10
avg_time_per_iteration = 0.00409975 sec
std_time_per_iteration = 0.000258035 sec
--------------------------

OMP_NUM_THREADS=4 R=2
OpenMP: repeat = 100
size = 1 x 1
points = 512 x 512
it = 10
avg_time_per_iteration = 0.00229899 sec
std_time_per_iteration = 0.00016707 sec
--------------------------

OMP_NUM_THREADS=8 R=2
OpenMP: repeat = 100
size = 1 x 1
points = 512 x 512
it = 10
avg_time_per_iteration = 0.00136978 sec
std_time_per_iteration = 0.00010293 sec
--------------------------

OMP_NUM_THREADS=16 R=2
OpenMP: repeat = 100
size = 1 x 1
points = 512 x 512
it = 10
avg_time_per_iteration = 0.000815697 sec
std_time_per_iteration = 0.000125821 sec
--------------------------

OMP_NUM_THREADS=32 R=2
OpenMP: repeat = 100
size = 1 x 1
points = 512 x 512
it = 10
avg_time_per_iteration = 0.000484368 sec
std_time_per_iteration = 6.66924e-05 sec
--------------------------

OMP_NUM_THREADS=64 R=2
OpenMP: repeat = 100
size = 1 x 1
points = 512 x 512
it = 10
avg_time_per_iteration = 0.000327133 sec
std_time_per_iteration = 8.82737e-05 sec
--------------------------

