
OMP_NUM_THREADS=1 R=4
OpenMP: repeat = 100
size = 1 x 1
points = 512 x 512
it = 10
avg_time_per_iteration = 0.00523183 sec
std_time_per_iteration = 0.000173992 sec
--------------------------

OMP_NUM_THREADS=2 R=4
OpenMP: repeat = 100
size = 1 x 1
points = 512 x 512
it = 10
avg_time_per_iteration = 0.00298173 sec
std_time_per_iteration = 8.27385e-05 sec
--------------------------

OMP_NUM_THREADS=4 R=4
OpenMP: repeat = 100
size = 1 x 1
points = 512 x 512
it = 10
avg_time_per_iteration = 0.0017299 sec
std_time_per_iteration = 8.33576e-05 sec
--------------------------

OMP_NUM_THREADS=8 R=4
OpenMP: repeat = 100
size = 1 x 1
points = 512 x 512
it = 10
avg_time_per_iteration = 0.00103481 sec
std_time_per_iteration = 8.55306e-05 sec
--------------------------

OMP_NUM_THREADS=16 R=4
OpenMP: repeat = 100
size = 1 x 1
points = 512 x 512
it = 10
avg_time_per_iteration = 0.000621431 sec
std_time_per_iteration = 7.6149e-05 sec
--------------------------

OMP_NUM_THREADS=32 R=4
OpenMP: repeat = 100
size = 1 x 1
points = 512 x 512
it = 10
avg_time_per_iteration = 0.000356425 sec
std_time_per_iteration = 6.98089e-05 sec
--------------------------

OMP_NUM_THREADS=64 R=4
OpenMP: repeat = 100
size = 1 x 1
points = 512 x 512
it = 10
avg_time_per_iteration = 0.000292995 sec
std_time_per_iteration = 7.87313e-05 sec
--------------------------

