
OMP_NUM_THREADS=1 R=64
OpenMP: repeat = 100
size = 1 x 1
points = 2048 x 2048
it = 10
avg_time_per_iteration = 0.0358741 sec
std_time_per_iteration = 0.000221656 sec
--------------------------

OMP_NUM_THREADS=2 R=64
OpenMP: repeat = 100
size = 1 x 1
points = 2048 x 2048
it = 10
avg_time_per_iteration = 0.026329 sec
std_time_per_iteration = 0.00027263 sec
--------------------------

OMP_NUM_THREADS=4 R=64
OpenMP: repeat = 100
size = 1 x 1
points = 2048 x 2048
it = 10
avg_time_per_iteration = 0.016611 sec
std_time_per_iteration = 0.000242876 sec
--------------------------

OMP_NUM_THREADS=8 R=64
OpenMP: repeat = 100
size = 1 x 1
points = 2048 x 2048
it = 10
avg_time_per_iteration = 0.0123759 sec
std_time_per_iteration = 0.000128678 sec
--------------------------

OMP_NUM_THREADS=16 R=64
OpenMP: repeat = 100
size = 1 x 1
points = 2048 x 2048
it = 10
avg_time_per_iteration = 0.0074263 sec
std_time_per_iteration = 0.000158101 sec
--------------------------

OMP_NUM_THREADS=32 R=64
OpenMP: repeat = 100
size = 1 x 1
points = 2048 x 2048
it = 10
avg_time_per_iteration = 0.0047196 sec
std_time_per_iteration = 0.000197759 sec
--------------------------

OMP_NUM_THREADS=64 R=64
OpenMP: repeat = 100
size = 1 x 1
points = 2048 x 2048
it = 10
avg_time_per_iteration = 0.0041058 sec
std_time_per_iteration = 0.000439192 sec
--------------------------

