
OMP_NUM_THREADS=1 R=0 S=0
OpenMP: repeat = 100
size = 1 x 1
points = 2048 x 2048
it = 10
avg_time_per_iteration = 0.0262791 sec
std_time_per_iteration = 0.000128272 sec
--------------------------

OMP_NUM_THREADS=2 R=0 S=0
OpenMP: repeat = 100
size = 1 x 1
points = 2048 x 2048
it = 10
avg_time_per_iteration = 0.0189233 sec
std_time_per_iteration = 0.000310561 sec
--------------------------

OMP_NUM_THREADS=4 R=0 S=0
OpenMP: repeat = 100
size = 1 x 1
points = 2048 x 2048
it = 10
avg_time_per_iteration = 0.011407 sec
std_time_per_iteration = 0.000204616 sec
--------------------------

OMP_NUM_THREADS=8 R=0 S=0
OpenMP: repeat = 100
size = 1 x 1
points = 2048 x 2048
it = 10
avg_time_per_iteration = 0.00839312 sec
std_time_per_iteration = 0.000124582 sec
--------------------------

OMP_NUM_THREADS=16 R=0 S=0
OpenMP: repeat = 100
size = 1 x 1
points = 2048 x 2048
it = 10
avg_time_per_iteration = 0.00579934 sec
std_time_per_iteration = 0.000178256 sec
--------------------------

OMP_NUM_THREADS=32 R=0 S=0
OpenMP: repeat = 100
size = 1 x 1
points = 2048 x 2048
it = 10
avg_time_per_iteration = 0.00402474 sec
std_time_per_iteration = 7.50002e-05 sec
--------------------------

OMP_NUM_THREADS=64 R=0 S=0
OpenMP: repeat = 100
size = 1 x 1
points = 2048 x 2048
it = 10
avg_time_per_iteration = 0.00391019 sec
std_time_per_iteration = 0.000245636 sec
--------------------------

