
OMP_NUM_THREADS=1 R=0
OpenMP: repeat = 100
size = 1 x 1
points = 8192 x 8192
it = 10
avg_time_per_iteration = 0.501889 sec
std_time_per_iteration = 0.000468466 sec
--------------------------

OMP_NUM_THREADS=2 R=0
OpenMP: repeat = 100
size = 1 x 1
points = 8192 x 8192
it = 10
avg_time_per_iteration = 0.333441 sec
std_time_per_iteration = 0.00463445 sec
--------------------------

OMP_NUM_THREADS=4 R=0
OpenMP: repeat = 100
size = 1 x 1
points = 8192 x 8192
it = 10
avg_time_per_iteration = 0.207915 sec
std_time_per_iteration = 0.00321823 sec
--------------------------

OMP_NUM_THREADS=8 R=0
OpenMP: repeat = 100
size = 1 x 1
points = 8192 x 8192
it = 10
avg_time_per_iteration = 0.142866 sec
std_time_per_iteration = 0.00121067 sec
--------------------------

OMP_NUM_THREADS=16 R=0
OpenMP: repeat = 100
size = 1 x 1
points = 8192 x 8192
it = 10
avg_time_per_iteration = 0.0914197 sec
std_time_per_iteration = 0.000636109 sec
--------------------------

OMP_NUM_THREADS=32 R=0
OpenMP: repeat = 100
size = 1 x 1
points = 8192 x 8192
it = 10
avg_time_per_iteration = 0.0660102 sec
std_time_per_iteration = 0.000496925 sec
--------------------------

OMP_NUM_THREADS=64 R=0
OpenMP: repeat = 100
size = 1 x 1
points = 8192 x 8192
it = 10
avg_time_per_iteration = 0.0615206 sec
std_time_per_iteration = 0.000708125 sec
--------------------------

