
OMP_NUM_THREADS=1 R=256 S=512
OpenMP: repeat = 100
size = 1 x 1
points = 512 x 512
it = 10
avg_time_per_iteration = 0.00134145 sec
std_time_per_iteration = 7.34035e-05 sec
--------------------------

OMP_NUM_THREADS=2 R=256 S=512
OpenMP: repeat = 100
size = 1 x 1
points = 512 x 512
it = 10
avg_time_per_iteration = 0.000996745 sec
std_time_per_iteration = 4.32363e-05 sec
--------------------------

OMP_NUM_THREADS=4 R=256 S=512
OpenMP: repeat = 100
size = 1 x 1
points = 512 x 512
it = 10
avg_time_per_iteration = 0.000629715 sec
std_time_per_iteration = 6.70751e-05 sec
--------------------------

OMP_NUM_THREADS=8 R=256 S=512
OpenMP: repeat = 100
size = 1 x 1
points = 512 x 512
it = 10
avg_time_per_iteration = 0.000362214 sec
std_time_per_iteration = 5.8914e-05 sec
--------------------------

OMP_NUM_THREADS=16 R=256 S=512
OpenMP: repeat = 100
size = 1 x 1
points = 512 x 512
it = 10
avg_time_per_iteration = 0.000205294 sec
std_time_per_iteration = 3.80377e-05 sec
--------------------------

OMP_NUM_THREADS=32 R=256 S=512
OpenMP: repeat = 100
size = 1 x 1
points = 512 x 512
it = 10
avg_time_per_iteration = 0.000159708 sec
std_time_per_iteration = 6.7912e-05 sec
--------------------------

OMP_NUM_THREADS=64 R=256 S=512
OpenMP: repeat = 100
size = 1 x 1
points = 512 x 512
it = 10
avg_time_per_iteration = 0.000133601 sec
std_time_per_iteration = 7.59741e-05 sec
--------------------------

