
OMP_NUM_THREADS=1 R=512 S=32
OpenMP: repeat = 100
size = 1 x 1
points = 256 x 256
it = 10
avg_time_per_iteration = 0.000427622 sec
std_time_per_iteration = 1.70508e-05 sec
--------------------------

OMP_NUM_THREADS=2 R=512 S=32
OpenMP: repeat = 100
size = 1 x 1
points = 256 x 256
it = 10
avg_time_per_iteration = 0.00026946 sec
std_time_per_iteration = 1.27851e-05 sec
--------------------------

OMP_NUM_THREADS=4 R=512 S=32
OpenMP: repeat = 100
size = 1 x 1
points = 256 x 256
it = 10
avg_time_per_iteration = 0.00013783 sec
std_time_per_iteration = 2.51972e-05 sec
--------------------------

OMP_NUM_THREADS=8 R=512 S=32
OpenMP: repeat = 100
size = 1 x 1
points = 256 x 256
it = 10
avg_time_per_iteration = 7.88949e-05 sec
std_time_per_iteration = 2.69866e-05 sec
--------------------------

OMP_NUM_THREADS=16 R=512 S=32
OpenMP: repeat = 100
size = 1 x 1
points = 256 x 256
it = 10
avg_time_per_iteration = 5.08489e-05 sec
std_time_per_iteration = 5.14836e-05 sec
--------------------------

OMP_NUM_THREADS=32 R=512 S=32
OpenMP: repeat = 100
size = 1 x 1
points = 256 x 256
it = 10
avg_time_per_iteration = 3.54621e-05 sec
std_time_per_iteration = 4.0626e-05 sec
--------------------------

OMP_NUM_THREADS=64 R=512 S=32
OpenMP: repeat = 100
size = 1 x 1
points = 256 x 256
it = 10
avg_time_per_iteration = 3.39865e-05 sec
std_time_per_iteration = 6.92334e-05 sec
--------------------------

