
OMP_NUM_THREADS=1 R=32 S=256
OpenMP: repeat = 100
size = 1 x 1
points = 1024 x 1024
it = 10
avg_time_per_iteration = 0.00744664 sec
std_time_per_iteration = 0.00011728 sec
--------------------------

OMP_NUM_THREADS=2 R=32 S=256
OpenMP: repeat = 100
size = 1 x 1
points = 1024 x 1024
it = 10
avg_time_per_iteration = 0.00497602 sec
std_time_per_iteration = 5.60706e-05 sec
--------------------------

OMP_NUM_THREADS=4 R=32 S=256
OpenMP: repeat = 100
size = 1 x 1
points = 1024 x 1024
it = 10
avg_time_per_iteration = 0.00280502 sec
std_time_per_iteration = 4.60893e-05 sec
--------------------------

OMP_NUM_THREADS=8 R=32 S=256
OpenMP: repeat = 100
size = 1 x 1
points = 1024 x 1024
it = 10
avg_time_per_iteration = 0.00166176 sec
std_time_per_iteration = 3.18844e-05 sec
--------------------------

OMP_NUM_THREADS=16 R=32 S=256
OpenMP: repeat = 100
size = 1 x 1
points = 1024 x 1024
it = 10
avg_time_per_iteration = 0.000948357 sec
std_time_per_iteration = 4.1382e-05 sec
--------------------------

OMP_NUM_THREADS=32 R=32 S=256
OpenMP: repeat = 100
size = 1 x 1
points = 1024 x 1024
it = 10
avg_time_per_iteration = 0.000699088 sec
std_time_per_iteration = 4.46266e-05 sec
--------------------------

OMP_NUM_THREADS=64 R=32 S=256
OpenMP: repeat = 100
size = 1 x 1
points = 1024 x 1024
it = 10
avg_time_per_iteration = 0.000567562 sec
std_time_per_iteration = 6.77478e-05 sec
--------------------------

