
OMP_NUM_THREADS=1 R=64 S=16
OpenMP: repeat = 100
size = 1 x 1
points = 1024 x 1024
it = 10
avg_time_per_iteration = 0.0186951 sec
std_time_per_iteration = 0.000706548 sec
--------------------------

OMP_NUM_THREADS=2 R=64 S=16
OpenMP: repeat = 100
size = 1 x 1
points = 1024 x 1024
it = 10
avg_time_per_iteration = 0.00943974 sec
std_time_per_iteration = 0.000186034 sec
--------------------------

OMP_NUM_THREADS=4 R=64 S=16
OpenMP: repeat = 100
size = 1 x 1
points = 1024 x 1024
it = 10
avg_time_per_iteration = 0.00507712 sec
std_time_per_iteration = 0.000112535 sec
--------------------------

OMP_NUM_THREADS=8 R=64 S=16
OpenMP: repeat = 100
size = 1 x 1
points = 1024 x 1024
it = 10
avg_time_per_iteration = 0.00253137 sec
std_time_per_iteration = 1.9018e-05 sec
--------------------------

OMP_NUM_THREADS=16 R=64 S=16
OpenMP: repeat = 100
size = 1 x 1
points = 1024 x 1024
it = 10
avg_time_per_iteration = 0.00138842 sec
std_time_per_iteration = 0.000117269 sec
--------------------------

OMP_NUM_THREADS=32 R=64 S=16
OpenMP: repeat = 100
size = 1 x 1
points = 1024 x 1024
it = 10
avg_time_per_iteration = 0.000868375 sec
std_time_per_iteration = 0.000120638 sec
--------------------------

OMP_NUM_THREADS=64 R=64 S=16
OpenMP: repeat = 100
size = 1 x 1
points = 1024 x 1024
it = 10
avg_time_per_iteration = 0.000680131 sec
std_time_per_iteration = 6.83069e-05 sec
--------------------------

