
OMP_NUM_THREADS=1 R=128 S=64
OpenMP: repeat = 100
size = 1 x 1
points = 512 x 512
it = 10
avg_time_per_iteration = 0.0020004 sec
std_time_per_iteration = 3.72364e-05 sec
--------------------------

OMP_NUM_THREADS=2 R=128 S=64
OpenMP: repeat = 100
size = 1 x 1
points = 512 x 512
it = 10
avg_time_per_iteration = 0.0013204 sec
std_time_per_iteration = 2.29007e-05 sec
--------------------------

OMP_NUM_THREADS=4 R=128 S=64
OpenMP: repeat = 100
size = 1 x 1
points = 512 x 512
it = 10
avg_time_per_iteration = 0.000711844 sec
std_time_per_iteration = 4.91608e-05 sec
--------------------------

OMP_NUM_THREADS=8 R=128 S=64
OpenMP: repeat = 100
size = 1 x 1
points = 512 x 512
it = 10
avg_time_per_iteration = 0.000429109 sec
std_time_per_iteration = 7.27512e-05 sec
--------------------------

OMP_NUM_THREADS=16 R=128 S=64
OpenMP: repeat = 100
size = 1 x 1
points = 512 x 512
it = 10
avg_time_per_iteration = 0.000239183 sec
std_time_per_iteration = 4.8641e-05 sec
--------------------------

OMP_NUM_THREADS=32 R=128 S=64
OpenMP: repeat = 100
size = 1 x 1
points = 512 x 512
it = 10
avg_time_per_iteration = 0.000172384 sec
std_time_per_iteration = 6.80011e-05 sec
--------------------------

OMP_NUM_THREADS=64 R=128 S=64
OpenMP: repeat = 100
size = 1 x 1
points = 512 x 512
it = 10
avg_time_per_iteration = 0.000141851 sec
std_time_per_iteration = 7.46744e-05 sec
--------------------------

