
OMP_NUM_THREADS=1 R=64 S=128
OpenMP: repeat = 100
size = 1 x 1
points = 1024 x 1024
it = 10
avg_time_per_iteration = 0.00832089 sec
std_time_per_iteration = 0.00013141 sec
--------------------------

OMP_NUM_THREADS=2 R=64 S=128
OpenMP: repeat = 100
size = 1 x 1
points = 1024 x 1024
it = 10
avg_time_per_iteration = 0.00535184 sec
std_time_per_iteration = 7.1728e-05 sec
--------------------------

OMP_NUM_THREADS=4 R=64 S=128
OpenMP: repeat = 100
size = 1 x 1
points = 1024 x 1024
it = 10
avg_time_per_iteration = 0.00295087 sec
std_time_per_iteration = 4.47645e-05 sec
--------------------------

OMP_NUM_THREADS=8 R=64 S=128
OpenMP: repeat = 100
size = 1 x 1
points = 1024 x 1024
it = 10
avg_time_per_iteration = 0.00172845 sec
std_time_per_iteration = 2.61997e-05 sec
--------------------------

OMP_NUM_THREADS=16 R=64 S=128
OpenMP: repeat = 100
size = 1 x 1
points = 1024 x 1024
it = 10
avg_time_per_iteration = 0.00102219 sec
std_time_per_iteration = 0.000108209 sec
--------------------------

OMP_NUM_THREADS=32 R=64 S=128
OpenMP: repeat = 100
size = 1 x 1
points = 1024 x 1024
it = 10
avg_time_per_iteration = 0.0007255 sec
std_time_per_iteration = 9.77064e-05 sec
--------------------------

OMP_NUM_THREADS=64 R=64 S=128
OpenMP: repeat = 100
size = 1 x 1
points = 1024 x 1024
it = 10
avg_time_per_iteration = 0.000582257 sec
std_time_per_iteration = 6.19393e-05 sec
--------------------------

