
OMP_NUM_THREADS=1 R=16 S=512
OpenMP: repeat = 100
size = 1 x 1
points = 2048 x 2048
it = 10
avg_time_per_iteration = 0.0275607 sec
std_time_per_iteration = 6.8436e-05 sec
--------------------------

OMP_NUM_THREADS=2 R=16 S=512
OpenMP: repeat = 100
size = 1 x 1
points = 2048 x 2048
it = 10
avg_time_per_iteration = 0.0188004 sec
std_time_per_iteration = 0.000211069 sec
--------------------------

OMP_NUM_THREADS=4 R=16 S=512
OpenMP: repeat = 100
size = 1 x 1
points = 2048 x 2048
it = 10
avg_time_per_iteration = 0.0102843 sec
std_time_per_iteration = 0.000132823 sec
--------------------------

OMP_NUM_THREADS=8 R=16 S=512
OpenMP: repeat = 100
size = 1 x 1
points = 2048 x 2048
it = 10
avg_time_per_iteration = 0.00672837 sec
std_time_per_iteration = 7.06938e-05 sec
--------------------------

OMP_NUM_THREADS=16 R=16 S=512
OpenMP: repeat = 100
size = 1 x 1
points = 2048 x 2048
it = 10
avg_time_per_iteration = 0.0044996 sec
std_time_per_iteration = 0.000103791 sec
--------------------------

OMP_NUM_THREADS=32 R=16 S=512
OpenMP: repeat = 100
size = 1 x 1
points = 2048 x 2048
it = 10
avg_time_per_iteration = 0.00191586 sec
std_time_per_iteration = 0.000135601 sec
--------------------------

OMP_NUM_THREADS=64 R=16 S=512
OpenMP: repeat = 100
size = 1 x 1
points = 2048 x 2048
it = 10
avg_time_per_iteration = 0.00134845 sec
std_time_per_iteration = 0.000107421 sec
--------------------------

