
OMP_NUM_THREADS=1 R=512 S=128
OpenMP: repeat = 100
size = 1 x 1
points = 512 x 512
it = 10
avg_time_per_iteration = 0.00158726 sec
std_time_per_iteration = 8.8612e-05 sec
--------------------------

OMP_NUM_THREADS=2 R=512 S=128
OpenMP: repeat = 100
size = 1 x 1
points = 512 x 512
it = 10
avg_time_per_iteration = 0.00109107 sec
std_time_per_iteration = 3.66545e-05 sec
--------------------------

OMP_NUM_THREADS=4 R=512 S=128
OpenMP: repeat = 100
size = 1 x 1
points = 512 x 512
it = 10
avg_time_per_iteration = 0.000653495 sec
std_time_per_iteration = 6.057e-05 sec
--------------------------

OMP_NUM_THREADS=8 R=512 S=128
OpenMP: repeat = 100
size = 1 x 1
points = 512 x 512
it = 10
avg_time_per_iteration = 0.000372665 sec
std_time_per_iteration = 5.44888e-05 sec
--------------------------

OMP_NUM_THREADS=16 R=512 S=128
OpenMP: repeat = 100
size = 1 x 1
points = 512 x 512
it = 10
avg_time_per_iteration = 0.000219374 sec
std_time_per_iteration = 7.53675e-05 sec
--------------------------

OMP_NUM_THREADS=32 R=512 S=128
OpenMP: repeat = 100
size = 1 x 1
points = 512 x 512
it = 10
avg_time_per_iteration = 0.000164672 sec
std_time_per_iteration = 6.88576e-05 sec
--------------------------

OMP_NUM_THREADS=64 R=512 S=128
OpenMP: repeat = 100
size = 1 x 1
points = 512 x 512
it = 10
avg_time_per_iteration = 0.000136257 sec
std_time_per_iteration = 7.89645e-05 sec
--------------------------

