
OMP_NUM_THREADS=1 R=32 S=256
OpenMP: repeat = 100
size = 1 x 1
points = 2048 x 2048
it = 10
avg_time_per_iteration = 0.0287217 sec
std_time_per_iteration = 9.20067e-05 sec
--------------------------

OMP_NUM_THREADS=2 R=32 S=256
OpenMP: repeat = 100
size = 1 x 1
points = 2048 x 2048
it = 10
avg_time_per_iteration = 0.0195434 sec
std_time_per_iteration = 0.00022739 sec
--------------------------

OMP_NUM_THREADS=4 R=32 S=256
OpenMP: repeat = 100
size = 1 x 1
points = 2048 x 2048
it = 10
avg_time_per_iteration = 0.0106446 sec
std_time_per_iteration = 0.000132679 sec
--------------------------

OMP_NUM_THREADS=8 R=32 S=256
OpenMP: repeat = 100
size = 1 x 1
points = 2048 x 2048
it = 10
avg_time_per_iteration = 0.0068377 sec
std_time_per_iteration = 6.83305e-05 sec
--------------------------

OMP_NUM_THREADS=16 R=32 S=256
OpenMP: repeat = 100
size = 1 x 1
points = 2048 x 2048
it = 10
avg_time_per_iteration = 0.00451989 sec
std_time_per_iteration = 0.000117959 sec
--------------------------

OMP_NUM_THREADS=32 R=32 S=256
OpenMP: repeat = 100
size = 1 x 1
points = 2048 x 2048
it = 10
avg_time_per_iteration = 0.00199124 sec
std_time_per_iteration = 0.000106884 sec
--------------------------

OMP_NUM_THREADS=64 R=32 S=256
OpenMP: repeat = 100
size = 1 x 1
points = 2048 x 2048
it = 10
avg_time_per_iteration = 0.00139422 sec
std_time_per_iteration = 0.000130409 sec
--------------------------

