
OMP_NUM_THREADS=1 R=128 S=64
OpenMP: repeat = 100
size = 1 x 1
points = 2048 x 2048
it = 10
avg_time_per_iteration = 0.0497868 sec
std_time_per_iteration = 0.000200564 sec
--------------------------

OMP_NUM_THREADS=2 R=128 S=64
OpenMP: repeat = 100
size = 1 x 1
points = 2048 x 2048
it = 10
avg_time_per_iteration = 0.0269866 sec
std_time_per_iteration = 0.000160417 sec
--------------------------

OMP_NUM_THREADS=4 R=128 S=64
OpenMP: repeat = 100
size = 1 x 1
points = 2048 x 2048
it = 10
avg_time_per_iteration = 0.013367 sec
std_time_per_iteration = 0.000490399 sec
--------------------------

OMP_NUM_THREADS=8 R=128 S=64
OpenMP: repeat = 100
size = 1 x 1
points = 2048 x 2048
it = 10
avg_time_per_iteration = 0.00775555 sec
std_time_per_iteration = 0.000211268 sec
--------------------------

OMP_NUM_THREADS=16 R=128 S=64
OpenMP: repeat = 100
size = 1 x 1
points = 2048 x 2048
it = 10
avg_time_per_iteration = 0.00463806 sec
std_time_per_iteration = 0.000259683 sec
--------------------------

OMP_NUM_THREADS=32 R=128 S=64
OpenMP: repeat = 100
size = 1 x 1
points = 2048 x 2048
it = 10
avg_time_per_iteration = 0.00219062 sec
std_time_per_iteration = 0.000175635 sec
--------------------------

OMP_NUM_THREADS=64 R=128 S=64
OpenMP: repeat = 100
size = 1 x 1
points = 2048 x 2048
it = 10
avg_time_per_iteration = 0.00147637 sec
std_time_per_iteration = 0.000141694 sec
--------------------------

