
OMP_NUM_THREADS=1 R=256 S=256
OpenMP: repeat = 100
size = 1 x 1
points = 1024 x 1024
it = 10
avg_time_per_iteration = 0.0074698 sec
std_time_per_iteration = 0.000124773 sec
--------------------------

OMP_NUM_THREADS=2 R=256 S=256
OpenMP: repeat = 100
size = 1 x 1
points = 1024 x 1024
it = 10
avg_time_per_iteration = 0.00496928 sec
std_time_per_iteration = 5.88255e-05 sec
--------------------------

OMP_NUM_THREADS=4 R=256 S=256
OpenMP: repeat = 100
size = 1 x 1
points = 1024 x 1024
it = 10
avg_time_per_iteration = 0.00281647 sec
std_time_per_iteration = 4.48509e-05 sec
--------------------------

OMP_NUM_THREADS=8 R=256 S=256
OpenMP: repeat = 100
size = 1 x 1
points = 1024 x 1024
it = 10
avg_time_per_iteration = 0.00165559 sec
std_time_per_iteration = 2.97805e-05 sec
--------------------------

OMP_NUM_THREADS=16 R=256 S=256
OpenMP: repeat = 100
size = 1 x 1
points = 1024 x 1024
it = 10
avg_time_per_iteration = 0.000953579 sec
std_time_per_iteration = 6.80885e-05 sec
--------------------------

OMP_NUM_THREADS=32 R=256 S=256
OpenMP: repeat = 100
size = 1 x 1
points = 1024 x 1024
it = 10
avg_time_per_iteration = 0.00070948 sec
std_time_per_iteration = 9.0996e-05 sec
--------------------------

OMP_NUM_THREADS=64 R=256 S=256
OpenMP: repeat = 100
size = 1 x 1
points = 1024 x 1024
it = 10
avg_time_per_iteration = 0.000577782 sec
std_time_per_iteration = 6.0832e-05 sec
--------------------------

