
OMP_NUM_THREADS=1 R=256 S=32
OpenMP: repeat = 100
size = 1 x 1
points = 256 x 256
it = 10
avg_time_per_iteration = 0.000431497 sec
std_time_per_iteration = 2.53238e-05 sec
--------------------------

OMP_NUM_THREADS=2 R=256 S=32
OpenMP: repeat = 100
size = 1 x 1
points = 256 x 256
it = 10
avg_time_per_iteration = 0.000266961 sec
std_time_per_iteration = 1.55826e-05 sec
--------------------------

OMP_NUM_THREADS=4 R=256 S=32
OpenMP: repeat = 100
size = 1 x 1
points = 256 x 256
it = 10
avg_time_per_iteration = 0.000138548 sec
std_time_per_iteration = 3.01338e-05 sec
--------------------------

OMP_NUM_THREADS=8 R=256 S=32
OpenMP: repeat = 100
size = 1 x 1
points = 256 x 256
it = 10
avg_time_per_iteration = 7.91352e-05 sec
std_time_per_iteration = 2.44533e-05 sec
--------------------------

OMP_NUM_THREADS=16 R=256 S=32
OpenMP: repeat = 100
size = 1 x 1
points = 256 x 256
it = 10
avg_time_per_iteration = 4.94617e-05 sec
std_time_per_iteration = 4.0189e-05 sec
--------------------------

OMP_NUM_THREADS=32 R=256 S=32
OpenMP: repeat = 100
size = 1 x 1
points = 256 x 256
it = 10
avg_time_per_iteration = 3.70827e-05 sec
std_time_per_iteration = 5.63923e-05 sec
--------------------------

OMP_NUM_THREADS=64 R=256 S=32
OpenMP: repeat = 100
size = 1 x 1
points = 256 x 256
it = 10
avg_time_per_iteration = 8.44109e-05 sec
std_time_per_iteration = 0.000107784 sec
--------------------------

