
OMP_NUM_THREADS=1 R=32 S=512
OpenMP: repeat = 100
size = 1 x 1
points = 2048 x 2048
it = 10
avg_time_per_iteration = 0.0276321 sec
std_time_per_iteration = 0.000101609 sec
--------------------------

OMP_NUM_THREADS=2 R=32 S=512
OpenMP: repeat = 100
size = 1 x 1
points = 2048 x 2048
it = 10
avg_time_per_iteration = 0.0187983 sec
std_time_per_iteration = 0.000217961 sec
--------------------------

OMP_NUM_THREADS=4 R=32 S=512
OpenMP: repeat = 100
size = 1 x 1
points = 2048 x 2048
it = 10
avg_time_per_iteration = 0.0103018 sec
std_time_per_iteration = 0.000171378 sec
--------------------------

OMP_NUM_THREADS=8 R=32 S=512
OpenMP: repeat = 100
size = 1 x 1
points = 2048 x 2048
it = 10
avg_time_per_iteration = 0.00671562 sec
std_time_per_iteration = 6.48263e-05 sec
--------------------------

OMP_NUM_THREADS=16 R=32 S=512
OpenMP: repeat = 100
size = 1 x 1
points = 2048 x 2048
it = 10
avg_time_per_iteration = 0.00455354 sec
std_time_per_iteration = 0.000136589 sec
--------------------------

OMP_NUM_THREADS=32 R=32 S=512
OpenMP: repeat = 100
size = 1 x 1
points = 2048 x 2048
it = 10
avg_time_per_iteration = 0.00190627 sec
std_time_per_iteration = 9.37204e-05 sec
--------------------------

OMP_NUM_THREADS=64 R=32 S=512
OpenMP: repeat = 100
size = 1 x 1
points = 2048 x 2048
it = 10
avg_time_per_iteration = 0.00137434 sec
std_time_per_iteration = 0.000122625 sec
--------------------------

