
OMP_NUM_THREADS=1 R=64 S=64
OpenMP: repeat = 100
size = 1 x 1
points = 256 x 256
it = 10
avg_time_per_iteration = 0.000307739 sec
std_time_per_iteration = 1.95098e-05 sec
--------------------------

OMP_NUM_THREADS=2 R=64 S=64
OpenMP: repeat = 100
size = 1 x 1
points = 256 x 256
it = 10
avg_time_per_iteration = 0.000234989 sec
std_time_per_iteration = 1.27255e-05 sec
--------------------------

OMP_NUM_THREADS=4 R=64 S=64
OpenMP: repeat = 100
size = 1 x 1
points = 256 x 256
it = 10
avg_time_per_iteration = 0.000133064 sec
std_time_per_iteration = 2.60935e-05 sec
--------------------------

OMP_NUM_THREADS=8 R=64 S=64
OpenMP: repeat = 100
size = 1 x 1
points = 256 x 256
it = 10
avg_time_per_iteration = 7.5603e-05 sec
std_time_per_iteration = 2.63963e-05 sec
--------------------------

OMP_NUM_THREADS=16 R=64 S=64
OpenMP: repeat = 100
size = 1 x 1
points = 256 x 256
it = 10
avg_time_per_iteration = 4.60986e-05 sec
std_time_per_iteration = 3.04539e-05 sec
--------------------------

OMP_NUM_THREADS=32 R=64 S=64
OpenMP: repeat = 100
size = 1 x 1
points = 256 x 256
it = 10
avg_time_per_iteration = 3.52317e-05 sec
std_time_per_iteration = 5.5472e-05 sec
--------------------------

OMP_NUM_THREADS=64 R=64 S=64
OpenMP: repeat = 100
size = 1 x 1
points = 256 x 256
it = 10
avg_time_per_iteration = 3.29724e-05 sec
std_time_per_iteration = 7.64351e-05 sec
--------------------------

