
OMP_NUM_THREADS=1 R=128 S=512
OpenMP: repeat = 100
size = 1 x 1
points = 256 x 256
it = 10
avg_time_per_iteration = 0.00024222 sec
std_time_per_iteration = 1.98834e-05 sec
--------------------------

OMP_NUM_THREADS=2 R=128 S=512
OpenMP: repeat = 100
size = 1 x 1
points = 256 x 256
it = 10
avg_time_per_iteration = 0.000234071 sec
std_time_per_iteration = 1.44621e-05 sec
--------------------------

OMP_NUM_THREADS=4 R=128 S=512
OpenMP: repeat = 100
size = 1 x 1
points = 256 x 256
it = 10
avg_time_per_iteration = 0.000129546 sec
std_time_per_iteration = 2.31994e-05 sec
--------------------------

OMP_NUM_THREADS=8 R=128 S=512
OpenMP: repeat = 100
size = 1 x 1
points = 256 x 256
it = 10
avg_time_per_iteration = 7.49297e-05 sec
std_time_per_iteration = 3.50909e-05 sec
--------------------------

OMP_NUM_THREADS=16 R=128 S=512
OpenMP: repeat = 100
size = 1 x 1
points = 256 x 256
it = 10
avg_time_per_iteration = 4.64395e-05 sec
std_time_per_iteration = 4.63945e-05 sec
--------------------------

OMP_NUM_THREADS=32 R=128 S=512
OpenMP: repeat = 100
size = 1 x 1
points = 256 x 256
it = 10
avg_time_per_iteration = 4.5232e-05 sec
std_time_per_iteration = 5.67085e-05 sec
--------------------------

OMP_NUM_THREADS=64 R=128 S=512
OpenMP: repeat = 100
size = 1 x 1
points = 256 x 256
it = 10
avg_time_per_iteration = 3.4429e-05 sec
std_time_per_iteration = 8.22869e-05 sec
--------------------------

