
OMP_NUM_THREADS=1 R=256 S=64
OpenMP: repeat = 100
size = 1 x 1
points = 2048 x 2048
it = 10
avg_time_per_iteration = 0.0421247 sec
std_time_per_iteration = 0.000159217 sec
--------------------------

OMP_NUM_THREADS=2 R=256 S=64
OpenMP: repeat = 100
size = 1 x 1
points = 2048 x 2048
it = 10
avg_time_per_iteration = 0.02433 sec
std_time_per_iteration = 0.000196182 sec
--------------------------

OMP_NUM_THREADS=4 R=256 S=64
OpenMP: repeat = 100
size = 1 x 1
points = 2048 x 2048
it = 10
avg_time_per_iteration = 0.0132423 sec
std_time_per_iteration = 0.000196713 sec
--------------------------

OMP_NUM_THREADS=8 R=256 S=64
OpenMP: repeat = 100
size = 1 x 1
points = 2048 x 2048
it = 10
avg_time_per_iteration = 0.00755508 sec
std_time_per_iteration = 0.000145893 sec
--------------------------

OMP_NUM_THREADS=16 R=256 S=64
OpenMP: repeat = 100
size = 1 x 1
points = 2048 x 2048
it = 10
avg_time_per_iteration = 0.0045767 sec
std_time_per_iteration = 0.000171567 sec
--------------------------

OMP_NUM_THREADS=32 R=256 S=64
OpenMP: repeat = 100
size = 1 x 1
points = 2048 x 2048
it = 10
avg_time_per_iteration = 0.00220793 sec
std_time_per_iteration = 0.000193541 sec
--------------------------

OMP_NUM_THREADS=64 R=256 S=64
OpenMP: repeat = 100
size = 1 x 1
points = 2048 x 2048
it = 10
avg_time_per_iteration = 0.00149182 sec
std_time_per_iteration = 0.000164443 sec
--------------------------

