
OMP_NUM_THREADS=1 R=512 S=256
OpenMP: repeat = 100
size = 1 x 1
points = 256 x 256
it = 10
avg_time_per_iteration = 0.000241494 sec
std_time_per_iteration = 1.55947e-05 sec
--------------------------

OMP_NUM_THREADS=2 R=512 S=256
OpenMP: repeat = 100
size = 1 x 1
points = 256 x 256
it = 10
avg_time_per_iteration = 0.000233902 sec
std_time_per_iteration = 1.24304e-05 sec
--------------------------

OMP_NUM_THREADS=4 R=512 S=256
OpenMP: repeat = 100
size = 1 x 1
points = 256 x 256
it = 10
avg_time_per_iteration = 0.000129903 sec
std_time_per_iteration = 2.34642e-05 sec
--------------------------

OMP_NUM_THREADS=8 R=512 S=256
OpenMP: repeat = 100
size = 1 x 1
points = 256 x 256
it = 10
avg_time_per_iteration = 7.43409e-05 sec
std_time_per_iteration = 2.42805e-05 sec
--------------------------

OMP_NUM_THREADS=16 R=512 S=256
OpenMP: repeat = 100
size = 1 x 1
points = 256 x 256
it = 10
avg_time_per_iteration = 4.64019e-05 sec
std_time_per_iteration = 4.51504e-05 sec
--------------------------

OMP_NUM_THREADS=32 R=512 S=256
OpenMP: repeat = 100
size = 1 x 1
points = 256 x 256
it = 10
avg_time_per_iteration = 3.45453e-05 sec
std_time_per_iteration = 5.04745e-05 sec
--------------------------

OMP_NUM_THREADS=64 R=512 S=256
OpenMP: repeat = 100
size = 1 x 1
points = 256 x 256
it = 10
avg_time_per_iteration = 3.16572e-05 sec
std_time_per_iteration = 7.13021e-05 sec
--------------------------

