
OMP_NUM_THREADS=1 R=32 S=64
OpenMP: repeat = 100
size = 1 x 1
points = 256 x 256
it = 10
avg_time_per_iteration = 0.000309276 sec
std_time_per_iteration = 1.70623e-05 sec
--------------------------

OMP_NUM_THREADS=2 R=32 S=64
OpenMP: repeat = 100
size = 1 x 1
points = 256 x 256
it = 10
avg_time_per_iteration = 0.000235393 sec
std_time_per_iteration = 1.25172e-05 sec
--------------------------

OMP_NUM_THREADS=4 R=32 S=64
OpenMP: repeat = 100
size = 1 x 1
points = 256 x 256
it = 10
avg_time_per_iteration = 0.000132636 sec
std_time_per_iteration = 2.59758e-05 sec
--------------------------

OMP_NUM_THREADS=8 R=32 S=64
OpenMP: repeat = 100
size = 1 x 1
points = 256 x 256
it = 10
avg_time_per_iteration = 7.59776e-05 sec
std_time_per_iteration = 2.64319e-05 sec
--------------------------

OMP_NUM_THREADS=16 R=32 S=64
OpenMP: repeat = 100
size = 1 x 1
points = 256 x 256
it = 10
avg_time_per_iteration = 4.57568e-05 sec
std_time_per_iteration = 2.91491e-05 sec
--------------------------

OMP_NUM_THREADS=32 R=32 S=64
OpenMP: repeat = 100
size = 1 x 1
points = 256 x 256
it = 10
avg_time_per_iteration = 3.52954e-05 sec
std_time_per_iteration = 5.25472e-05 sec
--------------------------

OMP_NUM_THREADS=64 R=32 S=64
OpenMP: repeat = 100
size = 1 x 1
points = 256 x 256
it = 10
avg_time_per_iteration = 3.28555e-05 sec
std_time_per_iteration = 7.4945e-05 sec
--------------------------

