
OMP_NUM_THREADS=1 R=128 S=16
OpenMP: repeat = 100
size = 1 x 1
points = 512 x 512
it = 10
avg_time_per_iteration = 0.00325541 sec
std_time_per_iteration = 3.2884e-05 sec
--------------------------

OMP_NUM_THREADS=2 R=128 S=16
OpenMP: repeat = 100
size = 1 x 1
points = 512 x 512
it = 10
avg_time_per_iteration = 0.00183883 sec
std_time_per_iteration = 2.89879e-05 sec
--------------------------

OMP_NUM_THREADS=4 R=128 S=16
OpenMP: repeat = 100
size = 1 x 1
points = 512 x 512
it = 10
avg_time_per_iteration = 0.0010637 sec
std_time_per_iteration = 4.53571e-05 sec
--------------------------

OMP_NUM_THREADS=8 R=128 S=16
OpenMP: repeat = 100
size = 1 x 1
points = 512 x 512
it = 10
avg_time_per_iteration = 0.000539355 sec
std_time_per_iteration = 5.54607e-05 sec
--------------------------

OMP_NUM_THREADS=16 R=128 S=16
OpenMP: repeat = 100
size = 1 x 1
points = 512 x 512
it = 10
avg_time_per_iteration = 0.000307705 sec
std_time_per_iteration = 7.17804e-05 sec
--------------------------

OMP_NUM_THREADS=32 R=128 S=16
OpenMP: repeat = 100
size = 1 x 1
points = 512 x 512
it = 10
avg_time_per_iteration = 0.000210373 sec
std_time_per_iteration = 6.91957e-05 sec
--------------------------

OMP_NUM_THREADS=64 R=128 S=16
OpenMP: repeat = 100
size = 1 x 1
points = 512 x 512
it = 10
avg_time_per_iteration = 0.000189923 sec
std_time_per_iteration = 0.000127152 sec
--------------------------

