
OMP_NUM_THREADS=1 R=128 S=512
OpenMP: repeat = 100
size = 1 x 1
points = 2048 x 2048
it = 10
avg_time_per_iteration = 0.0277273 sec
std_time_per_iteration = 0.000113206 sec
--------------------------

OMP_NUM_THREADS=2 R=128 S=512
OpenMP: repeat = 100
size = 1 x 1
points = 2048 x 2048
it = 10
avg_time_per_iteration = 0.0187908 sec
std_time_per_iteration = 0.00019937 sec
--------------------------

OMP_NUM_THREADS=4 R=128 S=512
OpenMP: repeat = 100
size = 1 x 1
points = 2048 x 2048
it = 10
avg_time_per_iteration = 0.0103089 sec
std_time_per_iteration = 0.000159061 sec
--------------------------

OMP_NUM_THREADS=8 R=128 S=512
OpenMP: repeat = 100
size = 1 x 1
points = 2048 x 2048
it = 10
avg_time_per_iteration = 0.00671016 sec
std_time_per_iteration = 8.81659e-05 sec
--------------------------

OMP_NUM_THREADS=16 R=128 S=512
OpenMP: repeat = 100
size = 1 x 1
points = 2048 x 2048
it = 10
avg_time_per_iteration = 0.0045813 sec
std_time_per_iteration = 0.000120051 sec
--------------------------

OMP_NUM_THREADS=32 R=128 S=512
OpenMP: repeat = 100
size = 1 x 1
points = 2048 x 2048
it = 10
avg_time_per_iteration = 0.00191619 sec
std_time_per_iteration = 0.000146129 sec
--------------------------

OMP_NUM_THREADS=64 R=128 S=512
OpenMP: repeat = 100
size = 1 x 1
points = 2048 x 2048
it = 10
avg_time_per_iteration = 0.00135742 sec
std_time_per_iteration = 8.81831e-05 sec
--------------------------

