
OMP_NUM_THREADS=1 R=64 S=256
OpenMP: repeat = 100
size = 1 x 1
points = 256 x 256
it = 10
avg_time_per_iteration = 0.000241397 sec
std_time_per_iteration = 1.53764e-05 sec
--------------------------

OMP_NUM_THREADS=2 R=64 S=256
OpenMP: repeat = 100
size = 1 x 1
points = 256 x 256
it = 10
avg_time_per_iteration = 0.00023414 sec
std_time_per_iteration = 1.63904e-05 sec
--------------------------

OMP_NUM_THREADS=4 R=64 S=256
OpenMP: repeat = 100
size = 1 x 1
points = 256 x 256
it = 10
avg_time_per_iteration = 0.000131236 sec
std_time_per_iteration = 2.11988e-05 sec
--------------------------

OMP_NUM_THREADS=8 R=64 S=256
OpenMP: repeat = 100
size = 1 x 1
points = 256 x 256
it = 10
avg_time_per_iteration = 7.4053e-05 sec
std_time_per_iteration = 2.58464e-05 sec
--------------------------

OMP_NUM_THREADS=16 R=64 S=256
OpenMP: repeat = 100
size = 1 x 1
points = 256 x 256
it = 10
avg_time_per_iteration = 4.47602e-05 sec
std_time_per_iteration = 2.74624e-05 sec
--------------------------

OMP_NUM_THREADS=32 R=64 S=256
OpenMP: repeat = 100
size = 1 x 1
points = 256 x 256
it = 10
avg_time_per_iteration = 3.46176e-05 sec
std_time_per_iteration = 5.02414e-05 sec
--------------------------

OMP_NUM_THREADS=64 R=64 S=256
OpenMP: repeat = 100
size = 1 x 1
points = 256 x 256
it = 10
avg_time_per_iteration = 3.22638e-05 sec
std_time_per_iteration = 7.19357e-05 sec
--------------------------

