
OMP_NUM_THREADS=1 R=32 S=512
OpenMP: repeat = 100
size = 1 x 1
points = 512 x 512
it = 10
avg_time_per_iteration = 0.00126916 sec
std_time_per_iteration = 6.55551e-05 sec
--------------------------

OMP_NUM_THREADS=2 R=32 S=512
OpenMP: repeat = 100
size = 1 x 1
points = 512 x 512
it = 10
avg_time_per_iteration = 0.000994138 sec
std_time_per_iteration = 4.79768e-05 sec
--------------------------

OMP_NUM_THREADS=4 R=32 S=512
OpenMP: repeat = 100
size = 1 x 1
points = 512 x 512
it = 10
avg_time_per_iteration = 0.000617003 sec
std_time_per_iteration = 7.06637e-05 sec
--------------------------

OMP_NUM_THREADS=8 R=32 S=512
OpenMP: repeat = 100
size = 1 x 1
points = 512 x 512
it = 10
avg_time_per_iteration = 0.000358579 sec
std_time_per_iteration = 6.19885e-05 sec
--------------------------

OMP_NUM_THREADS=16 R=32 S=512
OpenMP: repeat = 100
size = 1 x 1
points = 512 x 512
it = 10
avg_time_per_iteration = 0.000205158 sec
std_time_per_iteration = 4.70011e-05 sec
--------------------------

OMP_NUM_THREADS=32 R=32 S=512
OpenMP: repeat = 100
size = 1 x 1
points = 512 x 512
it = 10
avg_time_per_iteration = 0.000160184 sec
std_time_per_iteration = 6.88834e-05 sec
--------------------------

OMP_NUM_THREADS=64 R=32 S=512
OpenMP: repeat = 100
size = 1 x 1
points = 512 x 512
it = 10
avg_time_per_iteration = 0.000134369 sec
std_time_per_iteration = 7.79503e-05 sec
--------------------------

