
OMP_NUM_THREADS=1 R=128 S=128
OpenMP: repeat = 100
size = 1 x 1
points = 1024 x 1024
it = 10
avg_time_per_iteration = 0.00833459 sec
std_time_per_iteration = 0.00013236 sec
--------------------------

OMP_NUM_THREADS=2 R=128 S=128
OpenMP: repeat = 100
size = 1 x 1
points = 1024 x 1024
it = 10
avg_time_per_iteration = 0.00535133 sec
std_time_per_iteration = 6.87637e-05 sec
--------------------------

OMP_NUM_THREADS=4 R=128 S=128
OpenMP: repeat = 100
size = 1 x 1
points = 1024 x 1024
it = 10
avg_time_per_iteration = 0.00296148 sec
std_time_per_iteration = 4.27885e-05 sec
--------------------------

OMP_NUM_THREADS=8 R=128 S=128
OpenMP: repeat = 100
size = 1 x 1
points = 1024 x 1024
it = 10
avg_time_per_iteration = 0.00173392 sec
std_time_per_iteration = 2.91073e-05 sec
--------------------------

OMP_NUM_THREADS=16 R=128 S=128
OpenMP: repeat = 100
size = 1 x 1
points = 1024 x 1024
it = 10
avg_time_per_iteration = 0.00102921 sec
std_time_per_iteration = 8.82828e-05 sec
--------------------------

OMP_NUM_THREADS=32 R=128 S=128
OpenMP: repeat = 100
size = 1 x 1
points = 1024 x 1024
it = 10
avg_time_per_iteration = 0.000710603 sec
std_time_per_iteration = 9.60176e-05 sec
--------------------------

OMP_NUM_THREADS=64 R=128 S=128
OpenMP: repeat = 100
size = 1 x 1
points = 1024 x 1024
it = 10
avg_time_per_iteration = 0.000598199 sec
std_time_per_iteration = 0.000161715 sec
--------------------------

