
OMP_NUM_THREADS=1 R=32 S=128
OpenMP: repeat = 100
size = 1 x 1
points = 1024 x 1024
it = 10
avg_time_per_iteration = 0.00830023 sec
std_time_per_iteration = 0.00014144 sec
--------------------------

OMP_NUM_THREADS=2 R=32 S=128
OpenMP: repeat = 100
size = 1 x 1
points = 1024 x 1024
it = 10
avg_time_per_iteration = 0.0053559 sec
std_time_per_iteration = 6.71386e-05 sec
--------------------------

OMP_NUM_THREADS=4 R=32 S=128
OpenMP: repeat = 100
size = 1 x 1
points = 1024 x 1024
it = 10
avg_time_per_iteration = 0.00294467 sec
std_time_per_iteration = 4.93228e-05 sec
--------------------------

OMP_NUM_THREADS=8 R=32 S=128
OpenMP: repeat = 100
size = 1 x 1
points = 1024 x 1024
it = 10
avg_time_per_iteration = 0.00174167 sec
std_time_per_iteration = 3.06521e-05 sec
--------------------------

OMP_NUM_THREADS=16 R=32 S=128
OpenMP: repeat = 100
size = 1 x 1
points = 1024 x 1024
it = 10
avg_time_per_iteration = 0.00102665 sec
std_time_per_iteration = 9.51912e-05 sec
--------------------------

OMP_NUM_THREADS=32 R=32 S=128
OpenMP: repeat = 100
size = 1 x 1
points = 1024 x 1024
it = 10
avg_time_per_iteration = 0.000716014 sec
std_time_per_iteration = 5.53314e-05 sec
--------------------------

OMP_NUM_THREADS=64 R=32 S=128
OpenMP: repeat = 100
size = 1 x 1
points = 1024 x 1024
it = 10
avg_time_per_iteration = 0.000582567 sec
std_time_per_iteration = 6.12903e-05 sec
--------------------------

