
OMP_NUM_THREADS=1 R=16 S=256
OpenMP: repeat = 100
size = 1 x 1
points = 512 x 512
it = 10
avg_time_per_iteration = 0.00147353 sec
std_time_per_iteration = 4.41552e-05 sec
--------------------------

OMP_NUM_THREADS=2 R=16 S=256
OpenMP: repeat = 100
size = 1 x 1
points = 512 x 512
it = 10
avg_time_per_iteration = 0.00102917 sec
std_time_per_iteration = 3.35753e-05 sec
--------------------------

OMP_NUM_THREADS=4 R=16 S=256
OpenMP: repeat = 100
size = 1 x 1
points = 512 x 512
it = 10
avg_time_per_iteration = 0.000636898 sec
std_time_per_iteration = 6.11607e-05 sec
--------------------------

OMP_NUM_THREADS=8 R=16 S=256
OpenMP: repeat = 100
size = 1 x 1
points = 512 x 512
it = 10
avg_time_per_iteration = 0.000367746 sec
std_time_per_iteration = 5.27844e-05 sec
--------------------------

OMP_NUM_THREADS=16 R=16 S=256
OpenMP: repeat = 100
size = 1 x 1
points = 512 x 512
it = 10
avg_time_per_iteration = 0.000212802 sec
std_time_per_iteration = 7.28527e-05 sec
--------------------------

OMP_NUM_THREADS=32 R=16 S=256
OpenMP: repeat = 100
size = 1 x 1
points = 512 x 512
it = 10
avg_time_per_iteration = 0.000158938 sec
std_time_per_iteration = 6.29931e-05 sec
--------------------------

OMP_NUM_THREADS=64 R=16 S=256
OpenMP: repeat = 100
size = 1 x 1
points = 512 x 512
it = 10
avg_time_per_iteration = 0.000135818 sec
std_time_per_iteration = 7.56387e-05 sec
--------------------------

