
OMP_NUM_THREADS=1 R=32 S=512
OpenMP: repeat = 100
size = 1 x 1
points = 256 x 256
it = 10
avg_time_per_iteration = 0.000241975 sec
std_time_per_iteration = 1.45487e-05 sec
--------------------------

OMP_NUM_THREADS=2 R=32 S=512
OpenMP: repeat = 100
size = 1 x 1
points = 256 x 256
it = 10
avg_time_per_iteration = 0.000236107 sec
std_time_per_iteration = 1.19433e-05 sec
--------------------------

OMP_NUM_THREADS=4 R=32 S=512
OpenMP: repeat = 100
size = 1 x 1
points = 256 x 256
it = 10
avg_time_per_iteration = 0.000131274 sec
std_time_per_iteration = 2.08027e-05 sec
--------------------------

OMP_NUM_THREADS=8 R=32 S=512
OpenMP: repeat = 100
size = 1 x 1
points = 256 x 256
it = 10
avg_time_per_iteration = 7.40549e-05 sec
std_time_per_iteration = 2.42413e-05 sec
--------------------------

OMP_NUM_THREADS=16 R=32 S=512
OpenMP: repeat = 100
size = 1 x 1
points = 256 x 256
it = 10
avg_time_per_iteration = 4.61512e-05 sec
std_time_per_iteration = 4.08431e-05 sec
--------------------------

OMP_NUM_THREADS=32 R=32 S=512
OpenMP: repeat = 100
size = 1 x 1
points = 256 x 256
it = 10
avg_time_per_iteration = 3.50445e-05 sec
std_time_per_iteration = 5.23812e-05 sec
--------------------------

OMP_NUM_THREADS=64 R=32 S=512
OpenMP: repeat = 100
size = 1 x 1
points = 256 x 256
it = 10
avg_time_per_iteration = 3.22672e-05 sec
std_time_per_iteration = 7.57343e-05 sec
--------------------------

