
OMP_NUM_THREADS=1 R=512 S=32
OpenMP: repeat = 100
size = 1 x 1
points = 1024 x 1024
it = 10
avg_time_per_iteration = 0.0134267 sec
std_time_per_iteration = 6.3365e-05 sec
--------------------------

OMP_NUM_THREADS=2 R=512 S=32
OpenMP: repeat = 100
size = 1 x 1
points = 1024 x 1024
it = 10
avg_time_per_iteration = 0.0077835 sec
std_time_per_iteration = 0.000156141 sec
--------------------------

OMP_NUM_THREADS=4 R=512 S=32
OpenMP: repeat = 100
size = 1 x 1
points = 1024 x 1024
it = 10
avg_time_per_iteration = 0.00426829 sec
std_time_per_iteration = 8.00027e-05 sec
--------------------------

OMP_NUM_THREADS=8 R=512 S=32
OpenMP: repeat = 100
size = 1 x 1
points = 1024 x 1024
it = 10
avg_time_per_iteration = 0.00208497 sec
std_time_per_iteration = 3.02552e-05 sec
--------------------------

OMP_NUM_THREADS=16 R=512 S=32
OpenMP: repeat = 100
size = 1 x 1
points = 1024 x 1024
it = 10
avg_time_per_iteration = 0.00121206 sec
std_time_per_iteration = 2.37757e-05 sec
--------------------------

OMP_NUM_THREADS=32 R=512 S=32
OpenMP: repeat = 100
size = 1 x 1
points = 1024 x 1024
it = 10
avg_time_per_iteration = 0.000805737 sec
std_time_per_iteration = 9.95941e-05 sec
--------------------------

OMP_NUM_THREADS=64 R=512 S=32
OpenMP: repeat = 100
size = 1 x 1
points = 1024 x 1024
it = 10
avg_time_per_iteration = 0.00062148 sec
std_time_per_iteration = 5.15595e-05 sec
--------------------------

