
OMP_NUM_THREADS=1 R=32 S=512
OpenMP: repeat = 100
size = 1 x 1
points = 1024 x 1024
it = 10
avg_time_per_iteration = 0.00774469 sec
std_time_per_iteration = 0.00015265 sec
--------------------------

OMP_NUM_THREADS=2 R=32 S=512
OpenMP: repeat = 100
size = 1 x 1
points = 1024 x 1024
it = 10
avg_time_per_iteration = 0.00504563 sec
std_time_per_iteration = 6.60263e-05 sec
--------------------------

OMP_NUM_THREADS=4 R=32 S=512
OpenMP: repeat = 100
size = 1 x 1
points = 1024 x 1024
it = 10
avg_time_per_iteration = 0.00288345 sec
std_time_per_iteration = 3.9322e-05 sec
--------------------------

OMP_NUM_THREADS=8 R=32 S=512
OpenMP: repeat = 100
size = 1 x 1
points = 1024 x 1024
it = 10
avg_time_per_iteration = 0.0016166 sec
std_time_per_iteration = 3.27442e-05 sec
--------------------------

OMP_NUM_THREADS=16 R=32 S=512
OpenMP: repeat = 100
size = 1 x 1
points = 1024 x 1024
it = 10
avg_time_per_iteration = 0.000920264 sec
std_time_per_iteration = 8.49924e-05 sec
--------------------------

OMP_NUM_THREADS=32 R=32 S=512
OpenMP: repeat = 100
size = 1 x 1
points = 1024 x 1024
it = 10
avg_time_per_iteration = 0.00069449 sec
std_time_per_iteration = 8.98356e-05 sec
--------------------------

OMP_NUM_THREADS=64 R=32 S=512
OpenMP: repeat = 100
size = 1 x 1
points = 1024 x 1024
it = 10
avg_time_per_iteration = 0.000576315 sec
std_time_per_iteration = 0.000159929 sec
--------------------------

