
OMP_NUM_THREADS=1 R=128 S=128
OpenMP: repeat = 100
size = 1 x 1
points = 256 x 256
it = 10
avg_time_per_iteration = 0.000263659 sec
std_time_per_iteration = 1.90112e-05 sec
--------------------------

OMP_NUM_THREADS=2 R=128 S=128
OpenMP: repeat = 100
size = 1 x 1
points = 256 x 256
it = 10
avg_time_per_iteration = 0.000235363 sec
std_time_per_iteration = 1.67131e-05 sec
--------------------------

OMP_NUM_THREADS=4 R=128 S=128
OpenMP: repeat = 100
size = 1 x 1
points = 256 x 256
it = 10
avg_time_per_iteration = 0.000133367 sec
std_time_per_iteration = 2.58696e-05 sec
--------------------------

OMP_NUM_THREADS=8 R=128 S=128
OpenMP: repeat = 100
size = 1 x 1
points = 256 x 256
it = 10
avg_time_per_iteration = 7.5142e-05 sec
std_time_per_iteration = 2.58905e-05 sec
--------------------------

OMP_NUM_THREADS=16 R=128 S=128
OpenMP: repeat = 100
size = 1 x 1
points = 256 x 256
it = 10
avg_time_per_iteration = 8.53044e-05 sec
std_time_per_iteration = 9.45299e-05 sec
--------------------------

OMP_NUM_THREADS=32 R=128 S=128
OpenMP: repeat = 100
size = 1 x 1
points = 256 x 256
it = 10
avg_time_per_iteration = 3.54238e-05 sec
std_time_per_iteration = 5.44297e-05 sec
--------------------------

OMP_NUM_THREADS=64 R=128 S=128
OpenMP: repeat = 100
size = 1 x 1
points = 256 x 256
it = 10
avg_time_per_iteration = 3.24082e-05 sec
std_time_per_iteration = 7.16593e-05 sec
--------------------------

